r3_2_f30x_pwm_curr_fdbk.c:459:13:R3_2_GetPhaseCurrents	16	static
r3_2_f30x_pwm_curr_fdbk.c:625:10:R3_2_SetADCSampPointPolarization	8	static
r3_2_f30x_pwm_curr_fdbk.c:654:10:R3_2_SetADCSampPointSectX	12	static
r3_2_f30x_pwm_curr_fdbk.c:766:13:R3_2_HFCurrentsPolarizationAB	12	static
r3_2_f30x_pwm_curr_fdbk.c:804:13:R3_2_HFCurrentsPolarizationC	4	static
r3_2_f30x_pwm_curr_fdbk.c:838:13:R3_2_TurnOnLowSides	12	static
r3_2_f30x_pwm_curr_fdbk.c:882:13:R3_2_SwitchOnPWM	16	static
r3_2_f30x_pwm_curr_fdbk.c:941:13:R3_2_SwitchOffPWM	8	static
r3_2_f30x_pwm_curr_fdbk.c:1345:13:R3_2_RLGetPhaseCurrents	8	static
r3_2_f30x_pwm_curr_fdbk.c:1390:13:R3_2_RLTurnOnLowSides	12	static
r3_2_f30x_pwm_curr_fdbk.c:1430:13:R3_2_RLSwitchOnPWM	24	static
r3_2_f30x_pwm_curr_fdbk.c:83:13:R3_2_Init	48	static,ignoring_inline_asm
r3_2_f30x_pwm_curr_fdbk.c:342:13:R3_2_CurrentReadingPolarization	24	static
r3_2_f30x_pwm_curr_fdbk.c:995:15:R3_2_TIMx_UP_IRQHandler	28	static
r3_2_f30x_pwm_curr_fdbk.c:1037:15:R3_2_BRK2_IRQHandler	8	static
r3_2_f30x_pwm_curr_fdbk.c:1065:15:R3_2_BRK_IRQHandler	0	static
r3_2_f30x_pwm_curr_fdbk.c:1082:17:R3_2_IsOverCurrentOccurred	0	static
r3_2_f30x_pwm_curr_fdbk.c:1152:6:R3_2_RLDetectionModeEnable	8	static
r3_2_f30x_pwm_curr_fdbk.c:1208:6:R3_2_RLDetectionModeDisable	12	static
r3_2_f30x_pwm_curr_fdbk.c:1291:10:R3_2_RLDetectionModeSetDuty	8	static
r3_2_f30x_pwm_curr_fdbk.c:1496:6:RLTurnOnLowSidesAndStart	8	static
